{"preference":null,"pagination":{"total":131926,"limit":10,"offset":0,"total_pages":13193,"current_page":1},"data":[{"_score":89.9318,"id":15243,"api_model":"artworks","api_link":"https:\/\/api.artic.edu\/api\/v1\/artworks\/15243","title":"The Tragic Actor (Rouvi\u00e8re in the role of Hamlet)","thumbnail":{"lqip":"data:image\/gif;base64,R0lGODlhAwAFAPMAAFFKP3FoWJGJeruypMO9ssrEt87HvNLLvtPOwtzWzODbzuLc0efg1O7p4PDr4gAAACH5BAAAAAAALAAAAAADAAUAAAQLcI10QiEAGaEacxEAOw==","width":1404,"height":2250,"alt_text":"Black print on cream paper of a bearded man standing at center, dressed in a large cloak and tights, a sword at his feet."},"timestamp":"2026-05-03T23:21:03-05:00","is_boosted":false},{"_score":88.6308,"id":81533,"api_model":"artworks","api_link":"https:\/\/api.artic.edu\/api\/v1\/artworks\/81533","title":"The Races at Longchamp","thumbnail":{"lqip":"data:image\/gif;base64,R0lGODlhCgAFAPUAABwpHSYyJCM4Jyk6LDU2Jj0zIzQ\/MDY5N0M6KEo\/LVI+JUU9NCdAKjFLO0xPLkNEMURHO0xEOUVOOVFIOU9XOkJbPVxWOzdSQ1FNQk1SRVxVRF5VRmFiSmFvS295a3WAbHmAbX6FcXuEdYCMdX6SgJiflJOgip6ljayol6GlmaKnmau0nJ6xsLy2o7K5rre9r8DDtMTGtwAAAAAAAAAAAAAAAAAAAAAAAAAAAAAAAAAAAAAAAAAAAAAAAAAAAAAAACH5BAAAAAAALAAAAAAKAAUAAAYuQFQLFnO9WKpUaUQynVYiTwj0QWggnA5AUGE4FpMIJqGwUAiFwyZzMTwkjUEgCAA7","width":17784,"height":9254,"alt_text":"A work made of oil on canvas."},"timestamp":"2026-05-03T23:24:29-05:00","is_boosted":false},{"_score":88.16918,"id":16499,"api_model":"artworks","api_link":"https:\/\/api.artic.edu\/api\/v1\/artworks\/16499","is_boosted":true,"title":"Jesus Mocked by the Soldiers","thumbnail":{"lqip":"data:image\/gif;base64,R0lGODlhBAAFAPQAAAACBgYGBgUIChUSDiMdFTEqIT0xIjw4NkM3KlA+L0A7ME9IQVpZVm1ZQXNgTnRoW3ZtZ4t5W6aYib2ojQAAAAAAAAAAAAAAAAAAAAAAAAAAAAAAAAAAAAAAAAAAAAAAACH5BAAAAAAALAAAAAAEAAUAAAURoAAEA2EkTeFMSPRIh7JATAgAOw==","width":12580,"height":16162,"alt_text":"Large, dark painting of Jesus sitting with three standing soldiers."},"timestamp":"2026-05-03T23:26:01-05:00"},{"_score":86.529495,"id":44892,"api_model":"artworks","api_link":"https:\/\/api.artic.edu\/api\/v1\/artworks\/44892","is_boosted":true,"title":"Fish (Still Life)","thumbnail":{"lqip":"data:image\/gif;base64,R0lGODlhBgAFAPQAAB4ZGC8oHi0pJC0qJDMqIzUsIzQtJDsrITcxKUlCNkhBO1RCMlhPP1ZQQmphUHltWHt3aYFoV4Z0YY2IZpeOfpqNfJuWfKGdiKqghq2ljKmllbankrCqlQAAAAAAAAAAACH5BAAAAAAALAAAAAAGAAUAAAUYYFAgwmAkTQMchBNt1cI8EqVZE5ZxF6SEADs=","width":16704,"height":13234,"alt_text":"Still-life painting, fish, open oysters, eel, lemon on tablecloth."},"timestamp":"2026-05-03T23:24:31-05:00"},{"_score":86.50199,"id":87467,"api_model":"artworks","api_link":"https:\/\/api.artic.edu\/api\/v1\/artworks\/87467","title":"\u00c9douard Manet","thumbnail":{"lqip":"data:image\/gif;base64,R0lGODlhBAAFAPQAACUhJikjJT8xKzs0MEI8NEg8M0k\/MkxAMU1BNFRIN1JJOVlLPFlOPFxNPVtRPmRZQmVbRGddRWhcQ2lfRgAAAAAAAAAAAAAAAAAAAAAAAAAAAAAAAAAAAAAAAAAAAAAAACH5BAAAAAAALAAAAAAEAAUAAAURoIQkE9QU0UMADjMEyrEIRggAOw==","width":1688,"height":2250,"alt_text":"Portrait of a straight-faced, light-skinned man with a bushy, light-brown beard and rosy cheeks wearing a dark vest, jacket, and shiny top hat. He grasps a thin cane, held horizontally, with both hands."},"timestamp":"2026-05-03T22:36:27-05:00","is_boosted":false},{"_score":84.28276,"id":14591,"api_model":"artworks","api_link":"https:\/\/api.artic.edu\/api\/v1\/artworks\/14591","is_boosted":true,"title":"Woman Reading","thumbnail":{"lqip":"data:image\/gif;base64,R0lGODlhBAAFAPQAAB8bHCAdHjQwLTgyLEQ+N0dORUVJSFtRSlRbTE5UWmFbTWVvWXBrX21saH15a35\/c4qGe4WIfoqKfYiOfQAAAAAAAAAAAAAAAAAAAAAAAAAAAAAAAAAAAAAAAAAAAAAAACH5BAAAAAAALAAAAAAEAAUAAAUR4LQUiPQcRhNBCeMQgTIIQAgAOw==","width":12091,"height":14939,"alt_text":"A young woman in a dark hat and coat with light ruffled collar sits reading a large periodical held up in her gloved hands. Flowers and foliage are suggested behind her."},"timestamp":"2026-05-04T03:39:03-05:00"},{"_score":83.10951,"id":11137,"api_model":"artworks","api_link":"https:\/\/api.artic.edu\/api\/v1\/artworks\/11137","title":"Berthe Morisot in Silhouette","thumbnail":{"lqip":"data:image\/gif;base64,R0lGODlhBAAFAPQAAOfk3Onm3+7r5PDt5\/Hv6fPw6vXy7PTy7fXy7fXz7vb07\/X08Pb18fj38vn38vn48\/r59AAAAAAAAAAAAAAAAAAAAAAAAAAAAAAAAAAAAAAAAAAAAAAAAAAAAAAAAAAAACH5BAAAAAAALAAAAAAEAAUAAAURoKMgxjMICRQASlMQR8MsSggAOw==","width":1723,"height":2250,"alt_text":"A work made of lithograph in black on ivory chine, laid down on ivory wove paper (chine coll\u00e9)."},"timestamp":"2026-05-03T23:20:57-05:00","is_boosted":false},{"_score":83.0741,"id":95183,"api_model":"artworks","api_link":"https:\/\/api.artic.edu\/api\/v1\/artworks\/95183","title":"Beggar with a Duffle Coat (Philosopher)","thumbnail":{"lqip":"data:image\/gif;base64,R0lGODlhAwAFAPMAABoTCBsUCx4WCR8XCR8XCxwVDB8XDB8YDiMbDyQcESwkFzMjFDcvITQuIwAAAAAAACH5BAAAAAAALAAAAAADAAUAAAQLEKwgmEltnAIUIhEAOw==","width":7941,"height":13533,"alt_text":"A work made of oil on canvas."},"timestamp":"2026-05-03T23:24:29-05:00","is_boosted":false},{"_score":82.31825,"id":8969,"api_model":"artworks","api_link":"https:\/\/api.artic.edu\/api\/v1\/artworks\/8969","title":"Beggar with Oysters (Philosopher)","thumbnail":{"lqip":"data:image\/gif;base64,R0lGODlhAwAFAPMAABAQDRMRDhMSDxQSDhgUDwkRFBESEBgVEB8bFRoaGBgcHColIDs0Kkc+L0hBNgAAACH5BAAAAAAALAAAAAADAAUAAAQL8CAi1ADFrBQcaxEAOw==","width":1312,"height":2250,"alt_text":"A work made of oil on canvas."},"timestamp":"2026-05-03T23:24:31-05:00","is_boosted":false},{"_score":80.20299,"id":25812,"api_model":"artworks","api_link":"https:\/\/api.artic.edu\/api\/v1\/artworks\/25812","title":"Bullfight","thumbnail":{"lqip":"data:image\/gif;base64,R0lGODlhBgAFAPQAAFFDO11KOnhZPG1YR3dZQnJhUHdnVn5oUX1sWn5tXGZzdnt\/eYRvVIduVYVxUYRxXolzWZB2W5F3XIBwYo56ZY18aJmAXJSBa5KBbKiPZ2l2i3h9gnd\/i3qEkgAAAAAAACH5BAAAAAAALAAAAAAGAAUAAAUYoLJsXKcVD3VhFTAlBgINwSFFDSMQmeWEADs=","width":2816,"height":2250,"alt_text":"A work made of oil on canvas."},"timestamp":"2026-05-03T23:24:31-05:00","is_boosted":false}],"info":{"license_text":"The `description` field in this response is licensed under a Creative Commons Attribution 4.0 Generic License (CC-By) and the Terms and Conditions of artic.edu. All other data in this response is licensed under a Creative Commons Zero (CC0) 1.0 designation and the Terms and Conditions of artic.edu.","license_links":["https:\/\/creativecommons.org\/publicdomain\/zero\/1.0\/","https:\/\/www.artic.edu\/terms"],"version":"1.14"},"config":{"iiif_url":"https:\/\/www.artic.edu\/iiif\/2","website_url":"http:\/\/www.artic.edu"}}
